EESchema Schematic File Version 4
EELAYER 30 0
EELAYER END
$Descr A4 11693 8268
encoding utf-8
Sheet 1 1
Title ""
Date ""
Rev ""
Comp ""
Comment1 ""
Comment2 ""
Comment3 ""
Comment4 ""
$EndDescr
$Comp
L Device:R_Small_US R5
U 1 1 60B8C05B
P 1900 2850
F 0 "R5" V 1695 2850 50  0000 C CNN
F 1 "10k" V 1786 2850 50  0000 C CNN
F 2 "" H 1900 2850 50  0001 C CNN
F 3 "~" H 1900 2850 50  0001 C CNN
	1    1900 2850
	0    1    1    0   
$EndComp
Wire Wire Line
	1800 2850 1600 2850
$Comp
L Simulation_SPICE:OPAMP U1
U 1 1 60B8ECD8
P 2950 2950
F 0 "U1" H 3294 2996 50  0000 L CNN
F 1 "OPAMP" H 3294 2905 50  0000 L CNN
F 2 "" H 2950 2950 50  0001 C CNN
F 3 "~" H 2950 2950 50  0001 C CNN
F 4 "Y" H 2950 2950 50  0001 L CNN "Spice_Netlist_Enabled"
F 5 "X" H 2950 2950 50  0001 L CNN "Spice_Primitive"
	1    2950 2950
	1    0    0    -1  
$EndComp
Wire Wire Line
	1600 2850 1600 1850
Wire Wire Line
	1600 1850 2850 1850
Connection ~ 1600 2850
Wire Wire Line
	2650 3050 2600 3050
Wire Wire Line
	2000 2850 2050 2850
Wire Wire Line
	1600 2850 1600 3150
Wire Wire Line
	2600 3050 2600 3400
Wire Wire Line
	2150 2850 2150 3250
Connection ~ 2150 2850
Wire Wire Line
	2150 2850 2650 2850
$Comp
L pspice:CAP C1
U 1 1 60B95A0D
P 2150 3500
F 0 "C1" H 2328 3546 50  0000 L CNN
F 1 "100nF" H 2328 3455 50  0000 L CNN
F 2 "" H 2150 3500 50  0001 C CNN
F 3 "~" H 2150 3500 50  0001 C CNN
	1    2150 3500
	1    0    0    -1  
$EndComp
$Comp
L Device:R_Small_US R3
U 1 1 60B95DA2
P 2600 3500
F 0 "R3" H 2668 3546 50  0000 L CNN
F 1 "10k" H 2668 3455 50  0000 L CNN
F 2 "" H 2600 3500 50  0001 C CNN
F 3 "~" H 2600 3500 50  0001 C CNN
	1    2600 3500
	1    0    0    -1  
$EndComp
Wire Wire Line
	2600 3600 2600 4050
Wire Wire Line
	2050 2850 2050 3150
Wire Wire Line
	2050 3150 1600 3150
Connection ~ 2050 2850
Wire Wire Line
	2050 2850 2150 2850
Wire Wire Line
	2850 3250 2850 3650
$Comp
L pspice:CAP C2
U 1 1 60B9693C
P 2850 3900
F 0 "C2" H 3028 3946 50  0000 L CNN
F 1 "100nF" H 3028 3855 50  0000 L CNN
F 2 "" H 2850 3900 50  0001 C CNN
F 3 "~" H 2850 3900 50  0001 C CNN
	1    2850 3900
	1    0    0    -1  
$EndComp
Wire Wire Line
	2850 4150 2850 4200
Wire Wire Line
	2850 4300 3200 4300
Connection ~ 2850 4300
$Comp
L power:GND #PWR?
U 1 1 60B97843
P 3200 4450
F 0 "#PWR?" H 3200 4200 50  0001 C CNN
F 1 "GND" H 3205 4277 50  0000 C CNN
F 2 "" H 3200 4450 50  0001 C CNN
F 3 "" H 3200 4450 50  0001 C CNN
	1    3200 4450
	1    0    0    -1  
$EndComp
Wire Wire Line
	2850 2650 2850 1850
Connection ~ 2850 1850
Wire Wire Line
	2850 1850 3700 1850
$Comp
L Device:LED D2
U 1 1 60B9B0C3
P 3700 2000
F 0 "D2" V 3739 1882 50  0000 R CNN
F 1 "LED" V 3648 1882 50  0000 R CNN
F 2 "" H 3700 2000 50  0001 C CNN
F 3 "~" H 3700 2000 50  0001 C CNN
	1    3700 2000
	0    -1   -1   0   
$EndComp
$Comp
L Device:R_Small_US R2
U 1 1 60B9BEEE
P 3700 2450
F 0 "R2" H 3768 2496 50  0000 L CNN
F 1 "1k" H 3768 2405 50  0000 L CNN
F 2 "" H 3700 2450 50  0001 C CNN
F 3 "~" H 3700 2450 50  0001 C CNN
	1    3700 2450
	1    0    0    -1  
$EndComp
$Comp
L Device:R_Small_US R1
U 1 1 60B9C628
P 4350 2450
F 0 "R1" H 4418 2496 50  0000 L CNN
F 1 "10k" H 4418 2405 50  0000 L CNN
F 2 "" H 4350 2450 50  0001 C CNN
F 3 "~" H 4350 2450 50  0001 C CNN
	1    4350 2450
	1    0    0    -1  
$EndComp
$Comp
L Device:R_Small_US R4
U 1 1 60B9CAF9
P 5000 2450
F 0 "R4" H 5068 2496 50  0000 L CNN
F 1 "1k" H 5068 2405 50  0000 L CNN
F 2 "" H 5000 2450 50  0001 C CNN
F 3 "~" H 5000 2450 50  0001 C CNN
	1    5000 2450
	1    0    0    -1  
$EndComp
Wire Wire Line
	3700 1850 4350 1850
Wire Wire Line
	5000 2950 4350 2950
Connection ~ 3700 1850
Wire Wire Line
	5000 2950 5000 3350
Connection ~ 5000 2950
$Comp
L Device:LED D1
U 1 1 60B9F2BA
P 5000 3500
F 0 "D1" V 5039 3382 50  0000 R CNN
F 1 "LED" V 4948 3382 50  0000 R CNN
F 2 "" H 5000 3500 50  0001 C CNN
F 3 "~" H 5000 3500 50  0001 C CNN
	1    5000 3500
	0    -1   -1   0   
$EndComp
Wire Wire Line
	5000 3650 5000 4300
Connection ~ 4350 1850
Wire Wire Line
	4350 1850 5000 1850
Connection ~ 4350 2950
Wire Wire Line
	5000 2550 5000 2950
Wire Wire Line
	5000 1850 5000 2350
Wire Wire Line
	4350 2550 4350 2950
Wire Wire Line
	4350 1850 4350 2350
Wire Wire Line
	3250 2950 3700 2950
Wire Wire Line
	3700 2150 3700 2350
Wire Wire Line
	3700 2550 3700 2950
Connection ~ 3700 2950
Wire Wire Line
	3700 2950 4350 2950
Wire Wire Line
	3200 4450 3200 4300
Connection ~ 3200 4300
Wire Wire Line
	3200 4300 5000 4300
Wire Wire Line
	2150 3750 2150 4050
Wire Wire Line
	2150 4050 2600 4050
Wire Wire Line
	1600 4300 2850 4300
Wire Wire Line
	2600 4050 2600 4200
Wire Wire Line
	2600 4200 2850 4200
Connection ~ 2600 4050
Connection ~ 2850 4200
Wire Wire Line
	2850 4200 2850 4300
Wire Wire Line
	5000 2950 6050 2950
Text Label 6050 2950 0    50   ~ 0
Out
Wire Wire Line
	1600 3500 1600 4300
$Comp
L Sensor_Current:ACS725xLCTR-20AU U?
U 1 1 60B97DA5
P 1100 3400
F 0 "U?" H 1100 3981 50  0000 C CNN
F 1 "ACS725xLCTR-20AU" H 1100 3890 50  0000 C CNN
F 2 "Package_SO:SOIC-8_3.9x4.9mm_P1.27mm" H 1200 3050 50  0001 L CIN
F 3 "http://www.allegromicro.com/~/media/Files/Datasheets/ACS725-Datasheet.ashx?la=en" H 1100 3400 50  0001 C CNN
	1    1100 3400
	1    0    0    -1  
$EndComp
Wire Wire Line
	1500 3400 1600 3400
Wire Wire Line
	1600 3400 1600 3150
Connection ~ 1600 3150
Wire Wire Line
	1500 3500 1600 3500
$Comp
L power:GND #PWR?
U 1 1 60B9D099
P 1100 3800
F 0 "#PWR?" H 1100 3550 50  0001 C CNN
F 1 "GND" H 1105 3627 50  0000 C CNN
F 2 "" H 1100 3800 50  0001 C CNN
F 3 "" H 1100 3800 50  0001 C CNN
	1    1100 3800
	1    0    0    -1  
$EndComp
$EndSCHEMATC
